<?xml version="1.0" encoding="utf-8"?>
<!-- Generator: Adobe Illustrator 19.0.0, SVG Export Plug-In . SVG Version: 6.00 Build 0)  -->
<svg version="1.1" id="Layer_1" xmlns="http://www.w3.org/2000/svg" xmlns:xlink="http://www.w3.org/1999/xlink" x="0px" y="0px"
	 viewBox="0 0 323 321" style="enable-background:new 0 0 323 321;" xml:space="preserve">
<g id="XMLID_1_">
	<path id="XMLID_5_" style="fill:#FFFEFE;stroke:#FFFFFF;stroke-width:2;stroke-miterlimit:10;" d="M3,1v319h319V1H3z M293.1,195
		c0,0,9.3,14.4-6.5,22.7c0,0,3.4,17.2-13.6,20.2c0,0,4.9,17.5-14.8,21.1c0,0-0.9,13.8-17.3,14.7c0,0-2.5,14.1-19.8,11.3
		c0,0-4,12.3-20.4,8c0,0-8,12.3-21.3,4.6c0,0-10.5,11.3-21.3,0.9c0,0-13,9.5-22.8-3.7c0,0-13,9.2-21.9-7c0,0-13.6,7-21.3-8.6
		c0,0-12.3,3.7-18.2-13.5c0,0-14.2,0.9-15.1-15.6c0,0-11.4,1.5-12.7-17.2c0,0-13-2.8-9.9-19.6c0,0-13.3-8.3-5.6-21.4
		c0,0-11.6-8.8-3.8-21.6c-1.4-1.5-5.6-6.7-3.3-13.8c0.5-2.3,1.8-4.7,4.1-7l0.1,0c0.2-0.2,0.3-0.4,0.5-0.6c0,0-9-12.6,4-23
		c0,0-9.3-14.4,6.5-22.7c0,0-3.4-17.2,13.6-20.2c0,0-4.9-17.5,14.8-21.1c0,0,0.9-13.8,17.3-14.7c0,0,2.5-14.1,19.8-11.3
		c0,0,4-12.3,20.4-8c0,0,8-12.3,21.3-4.6c0,0,10.5-11.3,21.3-0.9c0,0,13-9.5,22.8,3.7c0,0,13-9.2,21.9,7c0,0,13.6-7,21.3,8.6
		c0,0,12.3-3.7,18.2,13.5c0,0,14.2-0.9,15.1,15.6c0,0,11.4-1.5,12.7,17.2c0,0,13,2.8,9.9,19.6c0,0,13.3,8.3,5.6,21.4
		c0,0,11.6,8.8,3.8,21.6c1.4,1.5,5.6,6.7,3.3,13.8c-0.5,2.3-1.8,4.7-4.1,7l-0.1,0c-0.2,0.2-0.3,0.4-0.5,0.6
		C297.1,172,306,184.5,293.1,195z"/>
	<g id="XMLID_11_">
		<path id="XMLID_12_" style="fill:none;stroke:#ff9800;stroke-width:2;stroke-miterlimit:10;" d="M18.4,171.4c0,0-11.2-10.1,1-23.2
			c0,0-9.5-13.4,4.3-24.5c0,0-9.9-15.3,6.9-24.2c0,0-3.6-18.3,14.5-21.5c0,0-5.3-18.6,15.8-22.5c0,0,1-14.7,18.4-15.7
			c0,0,2.6-15,21.1-12.1c0,0,4.3-13.1,21.7-8.5c0,0,8.6-13.1,22.7-4.9c0,0,11.2-12.1,22.7-1c0,0,13.8-10.1,24.3,3.9
			c0,0,13.8-9.8,23.4,7.5c0,0,14.5-7.5,22.7,9.1c0,0,13.2-3.9,19.4,14.4c0,0,15.1-1,16.1,16.6c0,0,12.2-1.6,13.5,18.3
			c0,0,13.8,2.9,10.5,20.9c0,0,14.1,8.8,5.9,22.8c0,0,12.5,9.5,3.9,23.2c0,0,9.5,11.8-0.7,21.9"/>
		<path id="XMLID_13_" style="fill:none;stroke:#ff9800;stroke-width:2;stroke-miterlimit:10;" d="M306.9,149.6
			c0,0,11.2,10.1-1,23.2c0,0,9.5,13.4-4.3,24.5c0,0,9.9,15.3-6.9,24.2c0,0,3.6,18.3-14.5,21.5c0,0,5.3,18.6-15.8,22.5
			c0,0-1,14.7-18.4,15.7c0,0-2.6,15-21.1,12.1c0,0-4.3,13.1-21.7,8.5c0,0-8.6,13.1-22.7,4.9c0,0-11.2,12.1-22.7,1
			c0,0-13.8,10.1-24.3-3.9c0,0-13.8,9.8-23.4-7.5c0,0-14.5,7.5-22.7-9.1c0,0-13.2,3.9-19.4-14.4c0,0-15.1,1-16.1-16.6
			c0,0-12.2,1.6-13.5-18.3c0,0-13.8-2.9-10.5-20.9c0,0-14.1-8.8-5.9-22.8c0,0-12.5-9.5-3.9-23.2c0,0-9.5-11.8,0.7-21.9"/>
	</g>
</g>
</svg>
