<?xml version="1.0" encoding="utf-8"?>
<!-- Generator: Adobe Illustrator 19.0.0, SVG Export Plug-In . SVG Version: 6.00 Build 0)  -->
<svg version="1.1" id="Layer_1" xmlns="http://www.w3.org/2000/svg" xmlns:xlink="http://www.w3.org/1999/xlink" x="0px" y="0px"
	 viewBox="0 0 100 100" style="enable-background:new 0 0 100 100;" xml:space="preserve">
<g>
	<g id="XMLID_11_">
		<path id="XMLID_12_" style="fill:none;stroke:#DD234A;stroke-width:2;stroke-miterlimit:10;" d="M6.1,53.5c0,0-3.4-3.1,0.3-7.1
			c0,0-2.9-4.1,1.3-7.5c0,0-3-4.7,2.1-7.4c0,0-1.1-5.6,4.4-6.6c0,0-1.6-5.7,4.8-6.9c0,0,0.3-4.5,5.6-4.8c0,0,0.8-4.6,6.4-3.7
			c0,0,1.3-4,6.6-2.6c0,0,2.6-4,6.9-1.5c0,0,3.4-3.7,6.9-0.3c0,0,4.2-3.1,7.4,1.2c0,0,4.2-3,7.1,2.3c0,0,4.4-2.3,6.9,2.8
			c0,0,4-1.2,5.9,4.4c0,0,4.6-0.3,4.9,5.1c0,0,3.7-0.5,4.1,5.6c0,0,4.2,0.9,3.2,6.4c0,0,4.3,2.7,1.8,7c0,0,3.8,2.9,1.2,7.1
			c0,0,2.9,3.6-0.2,6.7"/>
		<path id="XMLID_13_" style="fill:none;stroke:#DD234A;stroke-width:2;stroke-miterlimit:10;" d="M93.8,46.8c0,0,3.4,3.1-0.3,7.1
			c0,0,2.9,4.1-1.3,7.5c0,0,3,4.7-2.1,7.4c0,0,1.1,5.6-4.4,6.6c0,0,1.6,5.7-4.8,6.9c0,0-0.3,4.5-5.6,4.8c0,0-0.8,4.6-6.4,3.7
			c0,0-1.3,4-6.6,2.6c0,0-2.6,4-6.9,1.5c0,0-3.4,3.7-6.9,0.3c0,0-4.2,3.1-7.4-1.2c0,0-4.2,3-7.1-2.3c0,0-4.4,2.3-6.9-2.8
			c0,0-4,1.2-5.9-4.4c0,0-4.6,0.3-4.9-5.1c0,0-3.7,0.5-4.1-5.6c0,0-4.2-0.9-3.2-6.4c0,0-4.3-2.7-1.8-7c0,0-3.8-2.9-1.2-7.1
			c0,0-2.9-3.6,0.2-6.7"/>
	</g>
	<g id="XMLID_15_">
		<path id="XMLID_17_" style="fill:none;stroke:#FFFFFF;stroke-width:2;stroke-miterlimit:10;" d="M6.8,53.4c0,0-3.4-3,0.3-7
			c0,0-2.9-4,1.3-7.4c0,0-3-4.6,2.1-7.3c0,0-1.1-5.5,4.3-6.5c0,0-1.6-5.6,4.7-6.8c0,0,0.3-4.4,5.5-4.7c0,0,0.8-4.6,6.3-3.6
			c0,0,1.3-3.9,6.5-2.5c0,0,2.5-3.9,6.8-1.5c0,0,3.3-3.6,6.8-0.3c0,0,4.1-3,7.3,1.2c0,0,4.1-2.9,6.9,2.3c0,0,4.3-2.2,6.8,2.8
			c0,0,4-1.2,5.8,4.4c0,0,4.5-0.3,4.8,5.1c0,0,3.7-0.5,4.1,5.5c0,0,4.1,0.9,3.1,6.3c0,0,4.2,2.6,1.8,6.9c0,0,3.8,2.9,1.2,7
			c0,0,2.9,3.5-0.2,6.6"/>
		<path id="XMLID_16_" style="fill:none;stroke:#FFFFFF;stroke-width:2;stroke-miterlimit:10;" d="M93.1,46.8c0,0,3.4,3-0.3,7
			c0,0,2.9,4-1.3,7.4c0,0,3,4.6-2.1,7.3c0,0,1.1,5.5-4.3,6.5c0,0,1.6,5.6-4.7,6.8c0,0-0.3,4.4-5.5,4.7c0,0-0.8,4.6-6.3,3.6
			c0,0-1.3,3.9-6.5,2.5c0,0-2.5,3.9-6.8,1.5c0,0-3.3,3.6-6.8,0.3c0,0-4.1,3-7.3-1.2c0,0-4.1,2.9-6.9-2.3c0,0-4.3,2.2-6.8-2.8
			c0,0-4,1.2-5.8-4.4c0,0-4.5,0.3-4.8-5.1c0,0-3.7,0.5-4.1-5.5c0,0-4.1-0.9-3.1-6.3c0,0-4.2-2.6-1.8-6.9c0,0-3.8-2.9-1.2-7
			c0,0-2.9-3.5,0.2-6.6"/>
	</g>
</g>
<path style="fill:#DD234A;" d="M94.8,49.1c0.1,0.3,0.1,0.7,0.1,1c0.1,1.1-0.2,2.5-1.4,3.7l-0.3,0c0,0,0,0,0,0c0,0,2.9,4.1-1.3,7.4
	c0,0,3,4.7-2.1,7.4c0,0,1.1,5.6-4.4,6.5c0,0,1.6,5.7-4.8,6.9c0,0-0.3,4.4-5.6,4.8c0,0-0.8,4.6-6.3,3.7c0,0-1.3,4-6.5,2.6
	c0,0-2.6,3.9-6.8,1.5c0,0-3.3,3.7-6.9,0.3c0,0-4.2,3-7.3-1.2c0,0-4.2,3-7-2.3c0,0-4.3,2.3-6.8-2.8c0,0-4,1.2-5.9-4.4
	c0,0-4.5,0.3-4.9-5.1c0,0-3.7,0.5-4.1-5.5c0,0-4.1-0.9-3.2-6.4c0,0-4.3-2.7-1.8-7c0,0-3.7-2.8-1.3-6.9c-0.4-0.5-1.2-1.6-1.2-3
	c0-0.4,0-0.7,0-1.1H0v51.1h100V49.1H94.8z"/>
</svg>
